%YAML 1.1
%TAG !u! tag:unity3d.com,2011:
--- !u!29 &1
OcclusionCullingSettings:
  m_ObjectHideFlags: 0
  serializedVersion: 2
  m_OcclusionBakeSettings:
    smallestOccluder: 5
    smallestHole: 0.25
    backfaceThreshold: 100
  m_SceneGUID: 00000000000000000000000000000000
  m_OcclusionCullingData: {fileID: 0}
--- !u!104 &2
RenderSettings:
  m_ObjectHideFlags: 0
  serializedVersion: 9
  m_Fog: 0
  m_FogColor: {r: 0.5, g: 0.5, b: 0.5, a: 1}
  m_FogMode: 3
  m_FogDensity: 0.01
  m_LinearFogStart: 0
  m_LinearFogEnd: 300
  m_AmbientSkyColor: {r: 0.212, g: 0.227, b: 0.259, a: 1}
  m_AmbientEquatorColor: {r: 0.114, g: 0.125, b: 0.133, a: 1}
  m_AmbientGroundColor: {r: 0.047, g: 0.043, b: 0.035, a: 1}
  m_AmbientIntensity: 1
  m_AmbientMode: 0
  m_SubtractiveShadowColor: {r: 0.42, g: 0.478, b: 0.627, a: 1}
  m_SkyboxMaterial: {fileID: 10304, guid: 0000000000000000f000000000000000, type: 0}
  m_HaloStrength: 0.5
  m_FlareStrength: 1
  m_FlareFadeSpeed: 3
  m_HaloTexture: {fileID: 0}
  m_SpotCookie: {fileID: 10001, guid: 0000000000000000e000000000000000, type: 0}
  m_DefaultReflectionMode: 0
  m_DefaultReflectionResolution: 128
  m_ReflectionBounces: 1
  m_ReflectionIntensity: 1
  m_CustomReflection: {fileID: 0}
  m_Sun: {fileID: 0}
  m_IndirectSpecularColor: {r: 0.44711798, g: 0.4973933, b: 0.5761538, a: 1}
  m_UseRadianceAmbientProbe: 0
--- !u!157 &3
LightmapSettings:
  m_ObjectHideFlags: 0
  serializedVersion: 11
  m_GIWorkflowMode: 1
  m_GISettings:
    serializedVersion: 2
    m_BounceScale: 1
    m_IndirectOutputScale: 1
    m_AlbedoBoost: 1
    m_EnvironmentLightingMode: 0
    m_EnableBakedLightmaps: 1
    m_EnableRealtimeLightmaps: 1
  m_LightmapEditorSettings:
    serializedVersion: 12
    m_Resolution: 2
    m_BakeResolution: 40
    m_AtlasSize: 1024
    m_AO: 0
    m_AOMaxDistance: 1
    m_CompAOExponent: 0
    m_CompAOExponentDirect: 0
    m_ExtractAmbientOcclusion: 0
    m_Padding: 2
    m_LightmapParameters: {fileID: 0}
    m_LightmapsBakeMode: 1
    m_TextureCompression: 1
    m_FinalGather: 0
    m_FinalGatherFiltering: 1
    m_FinalGatherRayCount: 1024
    m_ReflectionCompression: 2
    m_MixedBakeMode: 1
    m_BakeBackend: 0
    m_PVRSampling: 1
    m_PVRDirectSampleCount: 32
    m_PVRSampleCount: 512
    m_PVRBounces: 2
    m_PVREnvironmentSampleCount: 512
    m_PVREnvironmentReferencePointCount: 2048
    m_PVRFilteringMode: 0
    m_PVRDenoiserTypeDirect: 0
    m_PVRDenoiserTypeIndirect: 0
    m_PVRDenoiserTypeAO: 0
    m_PVRFilterTypeDirect: 0
    m_PVRFilterTypeIndirect: 0
    m_PVRFilterTypeAO: 0
    m_PVREnvironmentMIS: 0
    m_PVRCulling: 1
    m_PVRFilteringGaussRadiusDirect: 1
    m_PVRFilteringGaussRadiusIndirect: 5
    m_PVRFilteringGaussRadiusAO: 2
    m_PVRFilteringAtrousPositionSigmaDirect: 0.5
    m_PVRFilteringAtrousPositionSigmaIndirect: 2
    m_PVRFilteringAtrousPositionSigmaAO: 1
    m_ExportTrainingData: 0
    m_TrainingDataDestination: TrainingData
  m_LightingDataAsset: {fileID: 112000004, guid: 80b25b6171f382b4983f0985fbfba991,
    type: 2}
  m_UseShadowmask: 0
--- !u!196 &4
NavMeshSettings:
  serializedVersion: 2
  m_ObjectHideFlags: 0
  m_BuildSettings:
    serializedVersion: 2
    agentTypeID: 0
    agentRadius: 0.5
    agentHeight: 2
    agentSlope: 45
    agentClimb: 0.4
    ledgeDropHeight: 0
    maxJumpAcrossDistance: 0
    minRegionArea: 2
    manualCellSize: 0
    cellSize: 0.16666667
    manualTileSize: 0
    tileSize: 256
    accuratePlacement: 0
    debug:
      m_Flags: 0
  m_NavMeshData: {fileID: 0}
--- !u!1001 &93064242
PrefabInstance:
  m_ObjectHideFlags: 0
  serializedVersion: 2
  m_Modification:
    m_TransformParent: {fileID: 0}
    m_Modifications:
    - target: {fileID: 458206, guid: d4f0926c0c781b248ac5571f78ada9ce, type: 3}
      propertyPath: m_LocalPosition.x
      value: -133.47
      objectReference: {fileID: 0}
    - target: {fileID: 458206, guid: d4f0926c0c781b248ac5571f78ada9ce, type: 3}
      propertyPath: m_LocalPosition.y
      value: 12.15
      objectReference: {fileID: 0}
    - target: {fileID: 458206, guid: d4f0926c0c781b248ac5571f78ada9ce, type: 3}
      propertyPath: m_LocalPosition.z
      value: -10.75
      objectReference: {fileID: 0}
    - target: {fileID: 458206, guid: d4f0926c0c781b248ac5571f78ada9ce, type: 3}
      propertyPath: m_LocalRotation.x
      value: 0
      objectReference: {fileID: 0}
    - target: {fileID: 458206, guid: d4f0926c0c781b248ac5571f78ada9ce, type: 3}
      propertyPath: m_LocalRotation.y
      value: 1
      objectReference: {fileID: 0}
    - target: {fileID: 458206, guid: d4f0926c0c781b248ac5571f78ada9ce, type: 3}
      propertyPath: m_LocalRotation.z
      value: 0
      objectReference: {fileID: 0}
    - target: {fileID: 458206, guid: d4f0926c0c781b248ac5571f78ada9ce, type: 3}
      propertyPath: m_LocalRotation.w
      value: 0
      objectReference: {fileID: 0}
    - target: {fileID: 458206, guid: d4f0926c0c781b248ac5571f78ada9ce, type: 3}
      propertyPath: m_RootOrder
      value: 2
      objectReference: {fileID: 0}
    - target: {fileID: 458206, guid: d4f0926c0c781b248ac5571f78ada9ce, type: 3}
      propertyPath: m_LocalEulerAnglesHint.y
      value: 180
      objectReference: {fileID: 0}
    - target: {fileID: 11473714, guid: d4f0926c0c781b248ac5571f78ada9ce, type: 3}
      propertyPath: inSpace
      value: 0
      objectReference: {fileID: 0}
    - target: {fileID: 199271067593428674, guid: d4f0926c0c781b248ac5571f78ada9ce,
        type: 3}
      propertyPath: m_Enabled
      value: 0
      objectReference: {fileID: 0}
    m_RemovedComponents: []
  m_SourcePrefab: {fileID: 100100000, guid: d4f0926c0c781b248ac5571f78ada9ce, type: 3}
--- !u!1001 &164440242
PrefabInstance:
  m_ObjectHideFlags: 0
  serializedVersion: 2
  m_Modification:
    m_TransformParent: {fileID: 0}
    m_Modifications:
    - target: {fileID: 4000010497766408, guid: 257a25710a59e7d42a37adc17e5b9645, type: 3}
      propertyPath: m_LocalPosition.x
      value: 121.8
      objectReference: {fileID: 0}
    - target: {fileID: 4000010497766408, guid: 257a25710a59e7d42a37adc17e5b9645, type: 3}
      propertyPath: m_LocalPosition.y
      value: 16.02
      objectReference: {fileID: 0}
    - target: {fileID: 4000010497766408, guid: 257a25710a59e7d42a37adc17e5b9645, type: 3}
      propertyPath: m_LocalPosition.z
      value: 51.18
      objectReference: {fileID: 0}
    - target: {fileID: 4000010497766408, guid: 257a25710a59e7d42a37adc17e5b9645, type: 3}
      propertyPath: m_LocalRotation.x
      value: 0
      objectReference: {fileID: 0}
    - target: {fileID: 4000010497766408, guid: 257a25710a59e7d42a37adc17e5b9645, type: 3}
      propertyPath: m_LocalRotation.y
      value: 0
      objectReference: {fileID: 0}
    - target: {fileID: 4000010497766408, guid: 257a25710a59e7d42a37adc17e5b9645, type: 3}
      propertyPath: m_LocalRotation.z
      value: 0
      objectReference: {fileID: 0}
    - target: {fileID: 4000010497766408, guid: 257a25710a59e7d42a37adc17e5b9645, type: 3}
      propertyPath: m_LocalRotation.w
      value: 1
      objectReference: {fileID: 0}
    - target: {fileID: 4000010497766408, guid: 257a25710a59e7d42a37adc17e5b9645, type: 3}
      propertyPath: m_RootOrder
      value: 4
      objectReference: {fileID: 0}
    - target: {fileID: 4000010695242346, guid: 257a25710a59e7d42a37adc17e5b9645, type: 3}
      propertyPath: m_LocalPosition.z
      value: 0.202
      objectReference: {fileID: 0}
    m_RemovedComponents: []
  m_SourcePrefab: {fileID: 100100000, guid: 257a25710a59e7d42a37adc17e5b9645, type: 3}
--- !u!1001 &410369106
PrefabInstance:
  m_ObjectHideFlags: 0
  serializedVersion: 2
  m_Modification:
    m_TransformParent: {fileID: 0}
    m_Modifications:
    - target: {fileID: 4000011799722868, guid: 170917c6424d8b742b73b7b71be68064, type: 3}
      propertyPath: m_LocalPosition.x
      value: -43.04
      objectReference: {fileID: 0}
    - target: {fileID: 4000011799722868, guid: 170917c6424d8b742b73b7b71be68064, type: 3}
      propertyPath: m_LocalPosition.y
      value: 12.07
      objectReference: {fileID: 0}
    - target: {fileID: 4000011799722868, guid: 170917c6424d8b742b73b7b71be68064, type: 3}
      propertyPath: m_LocalPosition.z
      value: 13.22
      objectReference: {fileID: 0}
    - target: {fileID: 4000011799722868, guid: 170917c6424d8b742b73b7b71be68064, type: 3}
      propertyPath: m_LocalRotation.x
      value: -0.70273477
      objectReference: {fileID: 0}
    - target: {fileID: 4000011799722868, guid: 170917c6424d8b742b73b7b71be68064, type: 3}
      propertyPath: m_LocalRotation.y
      value: -0.07744716
      objectReference: {fileID: 0}
    - target: {fileID: 4000011799722868, guid: 170917c6424d8b742b73b7b71be68064, type: 3}
      propertyPath: m_LocalRotation.z
      value: -0.07747285
      objectReference: {fileID: 0}
    - target: {fileID: 4000011799722868, guid: 170917c6424d8b742b73b7b71be68064, type: 3}
      propertyPath: m_LocalRotation.w
      value: 0.7029678
      objectReference: {fileID: 0}
    - target: {fileID: 4000011799722868, guid: 170917c6424d8b742b73b7b71be68064, type: 3}
      propertyPath: m_RootOrder
      value: 6
      objectReference: {fileID: 0}
    - target: {fileID: 23000011400986468, guid: 170917c6424d8b742b73b7b71be68064,
        type: 3}
      propertyPath: m_CastShadows
      value: 0
      objectReference: {fileID: 0}
    - target: {fileID: 23000011400986468, guid: 170917c6424d8b742b73b7b71be68064,
        type: 3}
      propertyPath: m_MotionVectors
      value: 0
      objectReference: {fileID: 0}
    m_RemovedComponents: []
  m_SourcePrefab: {fileID: 100100000, guid: 170917c6424d8b742b73b7b71be68064, type: 3}
--- !u!1 &427617717
GameObject:
  m_ObjectHideFlags: 0
  m_CorrespondingSourceObject: {fileID: 0}
  m_PrefabInstance: {fileID: 0}
  m_PrefabAsset: {fileID: 0}
  serializedVersion: 6
  m_Component:
  - component: {fileID: 427617718}
  - component: {fileID: 427617719}
  m_Layer: 0
  m_Name: Point light
  m_TagString: Untagged
  m_Icon: {fileID: 0}
  m_NavMeshLayer: 0
  m_StaticEditorFlags: 0
  m_IsActive: 1
--- !u!4 &427617718
Transform:
  m_ObjectHideFlags: 0
  m_CorrespondingSourceObject: {fileID: 0}
  m_PrefabInstance: {fileID: 0}
  m_PrefabAsset: {fileID: 0}
  m_GameObject: {fileID: 427617717}
  m_LocalRotation: {x: -0, y: -0, z: -0, w: 1}
  m_LocalPosition: {x: 0, y: 1.982, z: -4.634}
  m_LocalScale: {x: 1, y: 1, z: 1}
  m_Children: []
  m_Father: {fileID: 772272666}
  m_RootOrder: 11
  m_LocalEulerAnglesHint: {x: 0, y: 0, z: 0}
--- !u!108 &427617719
Light:
  m_ObjectHideFlags: 0
  m_CorrespondingSourceObject: {fileID: 0}
  m_PrefabInstance: {fileID: 0}
  m_PrefabAsset: {fileID: 0}
  m_GameObject: {fileID: 427617717}
  m_Enabled: 1
  serializedVersion: 9
  m_Type: 2
  m_Color: {r: 1, g: 1, b: 1, a: 1}
  m_Intensity: 1
  m_Range: 10
  m_SpotAngle: 30
  m_InnerSpotAngle: 21.80208
  m_CookieSize: 10
  m_Shadows:
    m_Type: 2
    m_Resolution: -1
    m_CustomResolution: -1
    m_Strength: 1
    m_Bias: 0.05
    m_NormalBias: 0.4
    m_NearPlane: 0.2
    m_CullingMatrixOverride:
      e00: 1
      e01: 0
      e02: 0
      e03: 0
      e10: 0
      e11: 1
      e12: 0
      e13: 0
      e20: 0
      e21: 0
      e22: 1
      e23: 0
      e30: 0
      e31: 0
      e32: 0
      e33: 1
    m_UseCullingMatrixOverride: 0
  m_Cookie: {fileID: 0}
  m_DrawHalo: 0
  m_Flare: {fileID: 0}
  m_RenderMode: 0
  m_CullingMask:
    serializedVersion: 2
    m_Bits: 4294967295
  m_RenderingLayerMask: 1
  m_Lightmapping: 4
  m_LightShadowCasterMode: 0
  m_AreaSize: {x: 1, y: 1}
  m_BounceIntensity: 1
  m_ColorTemperature: 6570
  m_UseColorTemperature: 0
  m_BoundingSphereOverride: {x: 0, y: 0, z: 0, w: 0}
  m_UseBoundingSphereOverride: 0
  m_ShadowRadius: 0
  m_ShadowAngle: 0
--- !u!1001 &474528333
PrefabInstance:
  m_ObjectHideFlags: 0
  serializedVersion: 2
  m_Modification:
    m_TransformParent: {fileID: 0}
    m_Modifications:
    - target: {fileID: 447856, guid: 4be20f94ffb8df04095bb119ffd66722, type: 3}
      propertyPath: m_LocalPosition.x
      value: 86.19
      objectReference: {fileID: 0}
    - target: {fileID: 447856, guid: 4be20f94ffb8df04095bb119ffd66722, type: 3}
      propertyPath: m_LocalPosition.y
      value: 12.69
      objectReference: {fileID: 0}
    - target: {fileID: 447856, guid: 4be20f94ffb8df04095bb119ffd66722, type: 3}
      propertyPath: m_LocalPosition.z
      value: 49.858727
      objectReference: {fileID: 0}
    - target: {fileID: 447856, guid: 4be20f94ffb8df04095bb119ffd66722, type: 3}
      propertyPath: m_LocalRotation.x
      value: 0
      objectReference: {fileID: 0}
    - target: {fileID: 447856, guid: 4be20f94ffb8df04095bb119ffd66722, type: 3}
      propertyPath: m_LocalRotation.y
      value: 0
      objectReference: {fileID: 0}
    - target: {fileID: 447856, guid: 4be20f94ffb8df04095bb119ffd66722, type: 3}
      propertyPath: m_LocalRotation.z
      value: 0
      objectReference: {fileID: 0}
    - target: {fileID: 447856, guid: 4be20f94ffb8df04095bb119ffd66722, type: 3}
      propertyPath: m_LocalRotation.w
      value: 1
      objectReference: {fileID: 0}
    - target: {fileID: 447856, guid: 4be20f94ffb8df04095bb119ffd66722, type: 3}
      propertyPath: m_RootOrder
      value: 10
      objectReference: {fileID: 0}
    - target: {fileID: 198000013649013866, guid: 4be20f94ffb8df04095bb119ffd66722,
        type: 3}
      propertyPath: ShapeModule.m_MeshRenderer
      value: 
      objectReference: {fileID: 1139450635}
    m_RemovedComponents: []
  m_SourcePrefab: {fileID: 100100000, guid: 4be20f94ffb8df04095bb119ffd66722, type: 3}
--- !u!4 &772272666 stripped
Transform:
  m_CorrespondingSourceObject: {fileID: 4000010497766408, guid: 257a25710a59e7d42a37adc17e5b9645,
    type: 3}
  m_PrefabInstance: {fileID: 164440242}
  m_PrefabAsset: {fileID: 0}
--- !u!1001 &789492681
PrefabInstance:
  m_ObjectHideFlags: 0
  serializedVersion: 2
  m_Modification:
    m_TransformParent: {fileID: 0}
    m_Modifications:
    - target: {fileID: 4000013929391506, guid: d3bd3724f43f6584b80dd29ab8ca2146, type: 3}
      propertyPath: m_LocalPosition.x
      value: -89
      objectReference: {fileID: 0}
    - target: {fileID: 4000013929391506, guid: d3bd3724f43f6584b80dd29ab8ca2146, type: 3}
      propertyPath: m_LocalPosition.y
      value: 20.314327
      objectReference: {fileID: 0}
    - target: {fileID: 4000013929391506, guid: d3bd3724f43f6584b80dd29ab8ca2146, type: 3}
      propertyPath: m_LocalPosition.z
      value: 57.9
      objectReference: {fileID: 0}
    - target: {fileID: 4000013929391506, guid: d3bd3724f43f6584b80dd29ab8ca2146, type: 3}
      propertyPath: m_LocalRotation.x
      value: 0
      objectReference: {fileID: 0}
    - target: {fileID: 4000013929391506, guid: d3bd3724f43f6584b80dd29ab8ca2146, type: 3}
      propertyPath: m_LocalRotation.y
      value: 0
      objectReference: {fileID: 0}
    - target: {fileID: 4000013929391506, guid: d3bd3724f43f6584b80dd29ab8ca2146, type: 3}
      propertyPath: m_LocalRotation.z
      value: 0
      objectReference: {fileID: 0}
    - target: {fileID: 4000013929391506, guid: d3bd3724f43f6584b80dd29ab8ca2146, type: 3}
      propertyPath: m_LocalRotation.w
      value: 1
      objectReference: {fileID: 0}
    - target: {fileID: 4000013929391506, guid: d3bd3724f43f6584b80dd29ab8ca2146, type: 3}
      propertyPath: m_RootOrder
      value: 5
      objectReference: {fileID: 0}
    - target: {fileID: 123000013414256878, guid: d3bd3724f43f6584b80dd29ab8ca2146,
        type: 3}
      propertyPath: m_Directional
      value: 0
      objectReference: {fileID: 0}
    m_RemovedComponents: []
  m_SourcePrefab: {fileID: 100100000, guid: d3bd3724f43f6584b80dd29ab8ca2146, type: 3}
--- !u!1001 &935956082
PrefabInstance:
  m_ObjectHideFlags: 0
  serializedVersion: 2
  m_Modification:
    m_TransformParent: {fileID: 0}
    m_Modifications:
    - target: {fileID: 4000011473327964, guid: f31b6111f071da1428c785a434913314, type: 3}
      propertyPath: m_LocalPosition.x
      value: -2.1
      objectReference: {fileID: 0}
    - target: {fileID: 4000011473327964, guid: f31b6111f071da1428c785a434913314, type: 3}
      propertyPath: m_LocalPosition.y
      value: 15.59
      objectReference: {fileID: 0}
    - target: {fileID: 4000011473327964, guid: f31b6111f071da1428c785a434913314, type: 3}
      propertyPath: m_LocalPosition.z
      value: 43.2
      objectReference: {fileID: 0}
    - target: {fileID: 4000011473327964, guid: f31b6111f071da1428c785a434913314, type: 3}
      propertyPath: m_LocalRotation.x
      value: 0
      objectReference: {fileID: 0}
    - target: {fileID: 4000011473327964, guid: f31b6111f071da1428c785a434913314, type: 3}
      propertyPath: m_LocalRotation.y
      value: 0
      objectReference: {fileID: 0}
    - target: {fileID: 4000011473327964, guid: f31b6111f071da1428c785a434913314, type: 3}
      propertyPath: m_LocalRotation.z
      value: 0
      objectReference: {fileID: 0}
    - target: {fileID: 4000011473327964, guid: f31b6111f071da1428c785a434913314, type: 3}
      propertyPath: m_LocalRotation.w
      value: 1
      objectReference: {fileID: 0}
    - target: {fileID: 4000011473327964, guid: f31b6111f071da1428c785a434913314, type: 3}
      propertyPath: m_RootOrder
      value: 12
      objectReference: {fileID: 0}
    m_RemovedComponents: []
  m_SourcePrefab: {fileID: 100100000, guid: f31b6111f071da1428c785a434913314, type: 3}
--- !u!1001 &986955741
PrefabInstance:
  m_ObjectHideFlags: 0
  serializedVersion: 2
  m_Modification:
    m_TransformParent: {fileID: 0}
    m_Modifications:
    - target: {fileID: 447160, guid: d9c0a43cf327eaa4989036273cdcc5c5, type: 3}
      propertyPath: m_LocalPosition.x
      value: 33.9
      objectReference: {fileID: 0}
    - target: {fileID: 447160, guid: d9c0a43cf327eaa4989036273cdcc5c5, type: 3}
      propertyPath: m_LocalPosition.y
      value: 21.92
      objectReference: {fileID: 0}
    - target: {fileID: 447160, guid: d9c0a43cf327eaa4989036273cdcc5c5, type: 3}
      propertyPath: m_LocalPosition.z
      value: 37.6
      objectReference: {fileID: 0}
    - target: {fileID: 447160, guid: d9c0a43cf327eaa4989036273cdcc5c5, type: 3}
      propertyPath: m_LocalRotation.x
      value: 0
      objectReference: {fileID: 0}
    - target: {fileID: 447160, guid: d9c0a43cf327eaa4989036273cdcc5c5, type: 3}
      propertyPath: m_LocalRotation.y
      value: 0
      objectReference: {fileID: 0}
    - target: {fileID: 447160, guid: d9c0a43cf327eaa4989036273cdcc5c5, type: 3}
      propertyPath: m_LocalRotation.z
      value: 0
      objectReference: {fileID: 0}
    - target: {fileID: 447160, guid: d9c0a43cf327eaa4989036273cdcc5c5, type: 3}
      propertyPath: m_LocalRotation.w
      value: 1
      objectReference: {fileID: 0}
    - target: {fileID: 447160, guid: d9c0a43cf327eaa4989036273cdcc5c5, type: 3}
      propertyPath: m_RootOrder
      value: 11
      objectReference: {fileID: 0}
    - target: {fileID: 447160, guid: d9c0a43cf327eaa4989036273cdcc5c5, type: 3}
      propertyPath: m_LocalEulerAnglesHint.y
      value: 0
      objectReference: {fileID: 0}
    - target: {fileID: 11421702, guid: d9c0a43cf327eaa4989036273cdcc5c5, type: 3}
      propertyPath: hyperDriveEnginePower
      value: 2000
      objectReference: {fileID: 0}
    - target: {fileID: 466964, guid: d9c0a43cf327eaa4989036273cdcc5c5, type: 3}
      propertyPath: m_LocalRotation.x
      value: -0.6421485
      objectReference: {fileID: 0}
    - target: {fileID: 466964, guid: d9c0a43cf327eaa4989036273cdcc5c5, type: 3}
      propertyPath: m_LocalRotation.y
      value: -0.29604942
      objectReference: {fileID: 0}
    - target: {fileID: 466964, guid: d9c0a43cf327eaa4989036273cdcc5c5, type: 3}
      propertyPath: m_LocalRotation.z
      value: 0.6421486
      objectReference: {fileID: 0}
    - target: {fileID: 466964, guid: d9c0a43cf327eaa4989036273cdcc5c5, type: 3}
      propertyPath: m_LocalRotation.w
      value: 0.29604962
      objectReference: {fileID: 0}
    - target: {fileID: 451834, guid: d9c0a43cf327eaa4989036273cdcc5c5, type: 3}
      propertyPath: m_LocalRotation.x
      value: -0.64214754
      objectReference: {fileID: 0}
    - target: {fileID: 451834, guid: d9c0a43cf327eaa4989036273cdcc5c5, type: 3}
      propertyPath: m_LocalRotation.y
      value: -0.29604924
      objectReference: {fileID: 0}
    - target: {fileID: 451834, guid: d9c0a43cf327eaa4989036273cdcc5c5, type: 3}
      propertyPath: m_LocalRotation.z
      value: 0.6421496
      objectReference: {fileID: 0}
    - target: {fileID: 451834, guid: d9c0a43cf327eaa4989036273cdcc5c5, type: 3}
      propertyPath: m_LocalRotation.w
      value: 0.29604942
      objectReference: {fileID: 0}
    - target: {fileID: 2341122, guid: d9c0a43cf327eaa4989036273cdcc5c5, type: 3}
      propertyPath: m_ReflectionProbeUsage
      value: 0
      objectReference: {fileID: 0}
    - target: {fileID: 2346526, guid: d9c0a43cf327eaa4989036273cdcc5c5, type: 3}
      propertyPath: m_ReflectionProbeUsage
      value: 1
      objectReference: {fileID: 0}
    - target: {fileID: 453672, guid: d9c0a43cf327eaa4989036273cdcc5c5, type: 3}
      propertyPath: m_LocalRotation.x
      value: -0.7070604
      objectReference: {fileID: 0}
    - target: {fileID: 453672, guid: d9c0a43cf327eaa4989036273cdcc5c5, type: 3}
      propertyPath: m_LocalRotation.y
      value: 0.008025332
      objectReference: {fileID: 0}
    - target: {fileID: 453672, guid: d9c0a43cf327eaa4989036273cdcc5c5, type: 3}
      propertyPath: m_LocalRotation.z
      value: 0.7070621
      objectReference: {fileID: 0}
    - target: {fileID: 453672, guid: d9c0a43cf327eaa4989036273cdcc5c5, type: 3}
      propertyPath: m_LocalRotation.w
      value: 0.008020365
      objectReference: {fileID: 0}
    - target: {fileID: 198000014259051508, guid: d9c0a43cf327eaa4989036273cdcc5c5,
        type: 3}
      propertyPath: ShapeModule.m_MeshRenderer
      value: 
      objectReference: {fileID: 1139450635}
    m_RemovedComponents: []
  m_SourcePrefab: {fileID: 100100000, guid: d9c0a43cf327eaa4989036273cdcc5c5, type: 3}
--- !u!1001 &1086494554
PrefabInstance:
  m_ObjectHideFlags: 0
  serializedVersion: 2
  m_Modification:
    m_TransformParent: {fileID: 0}
    m_Modifications:
    - target: {fileID: 444718, guid: 9d3116909df23c94f97a65411bba2bd7, type: 3}
      propertyPath: m_LocalPosition.x
      value: 103.07
      objectReference: {fileID: 0}
    - target: {fileID: 444718, guid: 9d3116909df23c94f97a65411bba2bd7, type: 3}
      propertyPath: m_LocalPosition.y
      value: 12.41
      objectReference: {fileID: 0}
    - target: {fileID: 444718, guid: 9d3116909df23c94f97a65411bba2bd7, type: 3}
      propertyPath: m_LocalPosition.z
      value: 49.12
      objectReference: {fileID: 0}
    - target: {fileID: 444718, guid: 9d3116909df23c94f97a65411bba2bd7, type: 3}
      propertyPath: m_LocalRotation.x
      value: 0
      objectReference: {fileID: 0}
    - target: {fileID: 444718, guid: 9d3116909df23c94f97a65411bba2bd7, type: 3}
      propertyPath: m_LocalRotation.y
      value: 0
      objectReference: {fileID: 0}
    - target: {fileID: 444718, guid: 9d3116909df23c94f97a65411bba2bd7, type: 3}
      propertyPath: m_LocalRotation.z
      value: 0
      objectReference: {fileID: 0}
    - target: {fileID: 444718, guid: 9d3116909df23c94f97a65411bba2bd7, type: 3}
      propertyPath: m_LocalRotation.w
      value: 1
      objectReference: {fileID: 0}
    - target: {fileID: 444718, guid: 9d3116909df23c94f97a65411bba2bd7, type: 3}
      propertyPath: m_RootOrder
      value: 9
      objectReference: {fileID: 0}
    m_RemovedComponents: []
  m_SourcePrefab: {fileID: 100100000, guid: 9d3116909df23c94f97a65411bba2bd7, type: 3}
--- !u!1001 &1109473294
PrefabInstance:
  m_ObjectHideFlags: 0
  serializedVersion: 2
  m_Modification:
    m_TransformParent: {fileID: 0}
    m_Modifications:
    - target: {fileID: 448190, guid: 144bd2e11bf4fbf45aeb44c922ef5508, type: 3}
      propertyPath: m_LocalPosition.x
      value: -40.42
      objectReference: {fileID: 0}
    - target: {fileID: 448190, guid: 144bd2e11bf4fbf45aeb44c922ef5508, type: 3}
      propertyPath: m_LocalPosition.y
      value: 17.42
      objectReference: {fileID: 0}
    - target: {fileID: 448190, guid: 144bd2e11bf4fbf45aeb44c922ef5508, type: 3}
      propertyPath: m_LocalPosition.z
      value: -32.84
      objectReference: {fileID: 0}
    - target: {fileID: 448190, guid: 144bd2e11bf4fbf45aeb44c922ef5508, type: 3}
      propertyPath: m_LocalRotation.x
      value: 0
      objectReference: {fileID: 0}
    - target: {fileID: 448190, guid: 144bd2e11bf4fbf45aeb44c922ef5508, type: 3}
      propertyPath: m_LocalRotation.y
      value: 0
      objectReference: {fileID: 0}
    - target: {fileID: 448190, guid: 144bd2e11bf4fbf45aeb44c922ef5508, type: 3}
      propertyPath: m_LocalRotation.z
      value: 0
      objectReference: {fileID: 0}
    - target: {fileID: 448190, guid: 144bd2e11bf4fbf45aeb44c922ef5508, type: 3}
      propertyPath: m_LocalRotation.w
      value: 1
      objectReference: {fileID: 0}
    - target: {fileID: 448190, guid: 144bd2e11bf4fbf45aeb44c922ef5508, type: 3}
      propertyPath: m_RootOrder
      value: 3
      objectReference: {fileID: 0}
    - target: {fileID: 11485702, guid: 144bd2e11bf4fbf45aeb44c922ef5508, type: 3}
      propertyPath: m_CarDriveType
      value: 2
      objectReference: {fileID: 0}
    - target: {fileID: 11485702, guid: 144bd2e11bf4fbf45aeb44c922ef5508, type: 3}
      propertyPath: m_CentreOfMassOffset.z
      value: -0.7
      objectReference: {fileID: 0}
    - target: {fileID: 11485702, guid: 144bd2e11bf4fbf45aeb44c922ef5508, type: 3}
      propertyPath: m_SteerHelper
      value: 0.5
      objectReference: {fileID: 0}
    - target: {fileID: 11485702, guid: 144bd2e11bf4fbf45aeb44c922ef5508, type: 3}
      propertyPath: m_TractionControl
      value: 0.5
      objectReference: {fileID: 0}
    - target: {fileID: 11472124, guid: 144bd2e11bf4fbf45aeb44c922ef5508, type: 3}
      propertyPath: m_Enabled
      value: 0
      objectReference: {fileID: 0}
    m_RemovedComponents: []
  m_SourcePrefab: {fileID: 100100000, guid: 144bd2e11bf4fbf45aeb44c922ef5508, type: 3}
--- !u!23 &1139450635 stripped
MeshRenderer:
  m_CorrespondingSourceObject: {fileID: 23000013520271916, guid: f31b6111f071da1428c785a434913314,
    type: 3}
  m_PrefabInstance: {fileID: 935956082}
  m_PrefabAsset: {fileID: 0}
--- !u!1001 &1227838107
PrefabInstance:
  m_ObjectHideFlags: 0
  serializedVersion: 2
  m_Modification:
    m_TransformParent: {fileID: 0}
    m_Modifications:
    - target: {fileID: 4000011071047232, guid: f1167a7fe04050c4d9bbaad7e6634fbd, type: 3}
      propertyPath: m_LocalPosition.x
      value: -65.17
      objectReference: {fileID: 0}
    - target: {fileID: 4000011071047232, guid: f1167a7fe04050c4d9bbaad7e6634fbd, type: 3}
      propertyPath: m_LocalPosition.y
      value: 12.16
      objectReference: {fileID: 0}
    - target: {fileID: 4000011071047232, guid: f1167a7fe04050c4d9bbaad7e6634fbd, type: 3}
      propertyPath: m_LocalPosition.z
      value: -6
      objectReference: {fileID: 0}
    - target: {fileID: 4000011071047232, guid: f1167a7fe04050c4d9bbaad7e6634fbd, type: 3}
      propertyPath: m_LocalRotation.x
      value: 0
      objectReference: {fileID: 0}
    - target: {fileID: 4000011071047232, guid: f1167a7fe04050c4d9bbaad7e6634fbd, type: 3}
      propertyPath: m_LocalRotation.y
      value: 0
      objectReference: {fileID: 0}
    - target: {fileID: 4000011071047232, guid: f1167a7fe04050c4d9bbaad7e6634fbd, type: 3}
      propertyPath: m_LocalRotation.z
      value: 0
      objectReference: {fileID: 0}
    - target: {fileID: 4000011071047232, guid: f1167a7fe04050c4d9bbaad7e6634fbd, type: 3}
      propertyPath: m_LocalRotation.w
      value: 1
      objectReference: {fileID: 0}
    - target: {fileID: 4000011071047232, guid: f1167a7fe04050c4d9bbaad7e6634fbd, type: 3}
      propertyPath: m_RootOrder
      value: 0
      objectReference: {fileID: 0}
    m_RemovedComponents: []
  m_SourcePrefab: {fileID: 100100000, guid: f1167a7fe04050c4d9bbaad7e6634fbd, type: 3}
--- !u!1001 &1258232521
PrefabInstance:
  m_ObjectHideFlags: 0
  serializedVersion: 2
  m_Modification:
    m_TransformParent: {fileID: 0}
    m_Modifications:
    - target: {fileID: 4816417826444758, guid: 15b3c82de4b972541ad06cc5dfb8a514, type: 3}
      propertyPath: m_LocalPosition.x
      value: -136.25363
      objectReference: {fileID: 0}
    - target: {fileID: 4816417826444758, guid: 15b3c82de4b972541ad06cc5dfb8a514, type: 3}
      propertyPath: m_LocalPosition.y
      value: 15.13
      objectReference: {fileID: 0}
    - target: {fileID: 4816417826444758, guid: 15b3c82de4b972541ad06cc5dfb8a514, type: 3}
      propertyPath: m_LocalPosition.z
      value: 39.30748
      objectReference: {fileID: 0}
    - target: {fileID: 4816417826444758, guid: 15b3c82de4b972541ad06cc5dfb8a514, type: 3}
      propertyPath: m_LocalRotation.x
      value: 0
      objectReference: {fileID: 0}
    - target: {fileID: 4816417826444758, guid: 15b3c82de4b972541ad06cc5dfb8a514, type: 3}
      propertyPath: m_LocalRotation.y
      value: 0
      objectReference: {fileID: 0}
    - target: {fileID: 4816417826444758, guid: 15b3c82de4b972541ad06cc5dfb8a514, type: 3}
      propertyPath: m_LocalRotation.z
      value: 0
      objectReference: {fileID: 0}
    - target: {fileID: 4816417826444758, guid: 15b3c82de4b972541ad06cc5dfb8a514, type: 3}
      propertyPath: m_LocalRotation.w
      value: 1
      objectReference: {fileID: 0}
    - target: {fileID: 4816417826444758, guid: 15b3c82de4b972541ad06cc5dfb8a514, type: 3}
      propertyPath: m_RootOrder
      value: 1
      objectReference: {fileID: 0}
    m_RemovedComponents: []
  m_SourcePrefab: {fileID: 100100000, guid: 15b3c82de4b972541ad06cc5dfb8a514, type: 3}
--- !u!1001 &1327454913
PrefabInstance:
  m_ObjectHideFlags: 0
  serializedVersion: 2
  m_Modification:
    m_TransformParent: {fileID: 0}
    m_Modifications:
    - target: {fileID: 4000013765699512, guid: c5a7a7b260898e44b94a625f39e4e681, type: 3}
      propertyPath: m_LocalPosition.x
      value: -57.173042
      objectReference: {fileID: 0}
    - target: {fileID: 4000013765699512, guid: c5a7a7b260898e44b94a625f39e4e681, type: 3}
      propertyPath: m_LocalPosition.y
      value: 14.59
      objectReference: {fileID: 0}
    - target: {fileID: 4000013765699512, guid: c5a7a7b260898e44b94a625f39e4e681, type: 3}
      propertyPath: m_LocalPosition.z
      value: -36.13
      objectReference: {fileID: 0}
    - target: {fileID: 4000013765699512, guid: c5a7a7b260898e44b94a625f39e4e681, type: 3}
      propertyPath: m_LocalRotation.x
      value: 0
      objectReference: {fileID: 0}
    - target: {fileID: 4000013765699512, guid: c5a7a7b260898e44b94a625f39e4e681, type: 3}
      propertyPath: m_LocalRotation.y
      value: 0
      objectReference: {fileID: 0}
    - target: {fileID: 4000013765699512, guid: c5a7a7b260898e44b94a625f39e4e681, type: 3}
      propertyPath: m_LocalRotation.z
      value: 0
      objectReference: {fileID: 0}
    - target: {fileID: 4000013765699512, guid: c5a7a7b260898e44b94a625f39e4e681, type: 3}
      propertyPath: m_LocalRotation.w
      value: 1
      objectReference: {fileID: 0}
    - target: {fileID: 4000013765699512, guid: c5a7a7b260898e44b94a625f39e4e681, type: 3}
      propertyPath: m_RootOrder
      value: 8
      objectReference: {fileID: 0}
    m_RemovedComponents: []
  m_SourcePrefab: {fileID: 100100000, guid: c5a7a7b260898e44b94a625f39e4e681, type: 3}
--- !u!1 &1638381536
GameObject:
  m_ObjectHideFlags: 0
  m_CorrespondingSourceObject: {fileID: 0}
  m_PrefabInstance: {fileID: 0}
  m_PrefabAsset: {fileID: 0}
  serializedVersion: 6
  m_Component:
  - component: {fileID: 1638381540}
  - component: {fileID: 1638381539}
  - component: {fileID: 1638381538}
  - component: {fileID: 1638381537}
  - component: {fileID: 1638381542}
  m_Layer: 0
  m_Name: Plane
  m_TagString: ground
  m_Icon: {fileID: 0}
  m_NavMeshLayer: 0
  m_StaticEditorFlags: 4294967295
  m_IsActive: 1
--- !u!23 &1638381537
MeshRenderer:
  m_ObjectHideFlags: 0
  m_CorrespondingSourceObject: {fileID: 0}
  m_PrefabInstance: {fileID: 0}
  m_PrefabAsset: {fileID: 0}
  m_GameObject: {fileID: 1638381536}
  m_Enabled: 1
  m_CastShadows: 1
  m_ReceiveShadows: 1
  m_DynamicOccludee: 1
  m_MotionVectors: 1
  m_LightProbeUsage: 1
  m_ReflectionProbeUsage: 1
  m_RenderingLayerMask: 1
  m_RendererPriority: 0
  m_Materials:
  - {fileID: 2100000, guid: 466c6c7df3b3f6447ae7b9276df63a80, type: 2}
  m_StaticBatchInfo:
    firstSubMesh: 0
    subMeshCount: 0
  m_StaticBatchRoot: {fileID: 0}
  m_ProbeAnchor: {fileID: 0}
  m_LightProbeVolumeOverride: {fileID: 0}
  m_ScaleInLightmap: 1
  m_ReceiveGI: 1
  m_PreserveUVs: 1
  m_IgnoreNormalsForChartDetection: 0
  m_ImportantGI: 0
  m_StitchLightmapSeams: 1
  m_SelectedEditorRenderState: 3
  m_MinimumChartSize: 4
  m_AutoUVMaxDistance: 0.5
  m_AutoUVMaxAngle: 89
  m_LightmapParameters: {fileID: 0}
  m_SortingLayerID: 0
  m_SortingLayer: 0
  m_SortingOrder: 0
--- !u!64 &1638381538
MeshCollider:
  m_ObjectHideFlags: 0
  m_CorrespondingSourceObject: {fileID: 0}
  m_PrefabInstance: {fileID: 0}
  m_PrefabAsset: {fileID: 0}
  m_GameObject: {fileID: 1638381536}
  m_Material: {fileID: 0}
  m_IsTrigger: 0
  m_Enabled: 1
  serializedVersion: 3
  m_Convex: 0
  m_CookingOptions: 14
  m_Mesh: {fileID: 10209, guid: 0000000000000000e000000000000000, type: 0}
--- !u!33 &1638381539
MeshFilter:
  m_ObjectHideFlags: 0
  m_CorrespondingSourceObject: {fileID: 0}
  m_PrefabInstance: {fileID: 0}
  m_PrefabAsset: {fileID: 0}
  m_GameObject: {fileID: 1638381536}
  m_Mesh: {fileID: 10209, guid: 0000000000000000e000000000000000, type: 0}
--- !u!4 &1638381540
Transform:
  m_ObjectHideFlags: 0
  m_CorrespondingSourceObject: {fileID: 0}
  m_PrefabInstance: {fileID: 0}
  m_PrefabAsset: {fileID: 0}
  m_GameObject: {fileID: 1638381536}
  m_LocalRotation: {x: 0, y: 0, z: 0, w: 1}
  m_LocalPosition: {x: -0.0073882937, y: 12.007482, z: -4.314001}
  m_LocalScale: {x: 50, y: 1, z: 50}
  m_Children: []
  m_Father: {fileID: 0}
  m_RootOrder: 15
  m_LocalEulerAnglesHint: {x: 0, y: 0, z: 0}
--- !u!65 &1638381542
BoxCollider:
  m_ObjectHideFlags: 0
  m_CorrespondingSourceObject: {fileID: 0}
  m_PrefabInstance: {fileID: 0}
  m_PrefabAsset: {fileID: 0}
  m_GameObject: {fileID: 1638381536}
  m_Material: {fileID: 0}
  m_IsTrigger: 0
  m_Enabled: 1
  serializedVersion: 2
  m_Size: {x: 10, y: 2.220446e-16, z: 10}
  m_Center: {x: 0, y: 0, z: 0}
--- !u!1001 &1673593636
PrefabInstance:
  m_ObjectHideFlags: 0
  serializedVersion: 2
  m_Modification:
    m_TransformParent: {fileID: 0}
    m_Modifications:
    - target: {fileID: 4000013406579904, guid: 7f2f533953815c641902fbb18a49e31d, type: 3}
      propertyPath: m_LocalPosition.x
      value: -42.6
      objectReference: {fileID: 0}
    - target: {fileID: 4000013406579904, guid: 7f2f533953815c641902fbb18a49e31d, type: 3}
      propertyPath: m_LocalPosition.y
      value: 20.314327
      objectReference: {fileID: 0}
    - target: {fileID: 4000013406579904, guid: 7f2f533953815c641902fbb18a49e31d, type: 3}
      propertyPath: m_LocalPosition.z
      value: 57.9
      objectReference: {fileID: 0}
    - target: {fileID: 4000013406579904, guid: 7f2f533953815c641902fbb18a49e31d, type: 3}
      propertyPath: m_LocalRotation.x
      value: 0
      objectReference: {fileID: 0}
    - target: {fileID: 4000013406579904, guid: 7f2f533953815c641902fbb18a49e31d, type: 3}
      propertyPath: m_LocalRotation.y
      value: 0
      objectReference: {fileID: 0}
    - target: {fileID: 4000013406579904, guid: 7f2f533953815c641902fbb18a49e31d, type: 3}
      propertyPath: m_LocalRotation.z
      value: 0
      objectReference: {fileID: 0}
    - target: {fileID: 4000013406579904, guid: 7f2f533953815c641902fbb18a49e31d, type: 3}
      propertyPath: m_LocalRotation.w
      value: 1
      objectReference: {fileID: 0}
    - target: {fileID: 4000013406579904, guid: 7f2f533953815c641902fbb18a49e31d, type: 3}
      propertyPath: m_RootOrder
      value: 7
      objectReference: {fileID: 0}
    m_RemovedComponents: []
  m_SourcePrefab: {fileID: 100100000, guid: 7f2f533953815c641902fbb18a49e31d, type: 3}
--- !u!1 &1763520251
GameObject:
  m_ObjectHideFlags: 0
  m_CorrespondingSourceObject: {fileID: 0}
  m_PrefabInstance: {fileID: 0}
  m_PrefabAsset: {fileID: 0}
  serializedVersion: 6
  m_Component:
  - component: {fileID: 1763520255}
  - component: {fileID: 1763520254}
  - component: {fileID: 1763520253}
  - component: {fileID: 1763520252}
  m_Layer: 0
  m_Name: Cube
  m_TagString: Untagged
  m_Icon: {fileID: 0}
  m_NavMeshLayer: 0
  m_StaticEditorFlags: 4294967295
  m_IsActive: 1
--- !u!23 &1763520252
MeshRenderer:
  m_ObjectHideFlags: 0
  m_CorrespondingSourceObject: {fileID: 0}
  m_PrefabInstance: {fileID: 0}
  m_PrefabAsset: {fileID: 0}
  m_GameObject: {fileID: 1763520251}
  m_Enabled: 1
  m_CastShadows: 1
  m_ReceiveShadows: 1
  m_DynamicOccludee: 1
  m_MotionVectors: 1
  m_LightProbeUsage: 1
  m_ReflectionProbeUsage: 1
  m_RenderingLayerMask: 1
  m_RendererPriority: 0
  m_Materials:
  - {fileID: 2100000, guid: 466c6c7df3b3f6447ae7b9276df63a80, type: 2}
  m_StaticBatchInfo:
    firstSubMesh: 0
    subMeshCount: 0
  m_StaticBatchRoot: {fileID: 0}
  m_ProbeAnchor: {fileID: 0}
  m_LightProbeVolumeOverride: {fileID: 0}
  m_ScaleInLightmap: 1
  m_ReceiveGI: 1
  m_PreserveUVs: 1
  m_IgnoreNormalsForChartDetection: 0
  m_ImportantGI: 0
  m_StitchLightmapSeams: 1
  m_SelectedEditorRenderState: 3
  m_MinimumChartSize: 4
  m_AutoUVMaxDistance: 0.5
  m_AutoUVMaxAngle: 89
  m_LightmapParameters: {fileID: 0}
  m_SortingLayerID: 0
  m_SortingLayer: 0
  m_SortingOrder: 0
--- !u!65 &1763520253
BoxCollider:
  m_ObjectHideFlags: 0
  m_CorrespondingSourceObject: {fileID: 0}
  m_PrefabInstance: {fileID: 0}
  m_PrefabAsset: {fileID: 0}
  m_GameObject: {fileID: 1763520251}
  m_Material: {fileID: 0}
  m_IsTrigger: 0
  m_Enabled: 1
  serializedVersion: 2
  m_Size: {x: 1, y: 1, z: 1}
  m_Center: {x: 0, y: 0, z: 0}
--- !u!33 &1763520254
MeshFilter:
  m_ObjectHideFlags: 0
  m_CorrespondingSourceObject: {fileID: 0}
  m_PrefabInstance: {fileID: 0}
  m_PrefabAsset: {fileID: 0}
  m_GameObject: {fileID: 1763520251}
  m_Mesh: {fileID: 10202, guid: 0000000000000000e000000000000000, type: 0}
--- !u!4 &1763520255
Transform:
  m_ObjectHideFlags: 0
  m_CorrespondingSourceObject: {fileID: 0}
  m_PrefabInstance: {fileID: 0}
  m_PrefabAsset: {fileID: 0}
  m_GameObject: {fileID: 1763520251}
  m_LocalRotation: {x: -0, y: -0, z: 0.17363444, w: 0.9848102}
  m_LocalPosition: {x: -73.1, y: 6.3, z: -96.4}
  m_LocalScale: {x: 20, y: 20, z: 20}
  m_Children: []
  m_Father: {fileID: 0}
  m_RootOrder: 16
  m_LocalEulerAnglesHint: {x: 0, y: 0, z: 19.715}
--- !u!1001 &2033233824
PrefabInstance:
  m_ObjectHideFlags: 0
  serializedVersion: 2
  m_Modification:
    m_TransformParent: {fileID: 0}
    m_Modifications:
    - target: {fileID: 423902, guid: e79f2ca7aa27b3b4cbb7d10eb10f8e0d, type: 3}
      propertyPath: m_LocalPosition.x
      value: 65.94
      objectReference: {fileID: 0}
    - target: {fileID: 423902, guid: e79f2ca7aa27b3b4cbb7d10eb10f8e0d, type: 3}
      propertyPath: m_LocalPosition.y
      value: 15.8
      objectReference: {fileID: 0}
    - target: {fileID: 423902, guid: e79f2ca7aa27b3b4cbb7d10eb10f8e0d, type: 3}
      propertyPath: m_LocalPosition.z
      value: 50.1
      objectReference: {fileID: 0}
    - target: {fileID: 423902, guid: e79f2ca7aa27b3b4cbb7d10eb10f8e0d, type: 3}
      propertyPath: m_LocalRotation.x
      value: 0
      objectReference: {fileID: 0}
    - target: {fileID: 423902, guid: e79f2ca7aa27b3b4cbb7d10eb10f8e0d, type: 3}
      propertyPath: m_LocalRotation.y
      value: 0
      objectReference: {fileID: 0}
    - target: {fileID: 423902, guid: e79f2ca7aa27b3b4cbb7d10eb10f8e0d, type: 3}
      propertyPath: m_LocalRotation.z
      value: 0
      objectReference: {fileID: 0}
    - target: {fileID: 423902, guid: e79f2ca7aa27b3b4cbb7d10eb10f8e0d, type: 3}
      propertyPath: m_LocalRotation.w
      value: 1
      objectReference: {fileID: 0}
    - target: {fileID: 423902, guid: e79f2ca7aa27b3b4cbb7d10eb10f8e0d, type: 3}
      propertyPath: m_RootOrder
      value: 13
      objectReference: {fileID: 0}
    - target: {fileID: 198000013747154708, guid: e79f2ca7aa27b3b4cbb7d10eb10f8e0d,
        type: 3}
      propertyPath: ShapeModule.m_MeshRenderer
      value: 
      objectReference: {fileID: 1139450635}
    m_RemovedComponents: []
  m_SourcePrefab: {fileID: 100100000, guid: e79f2ca7aa27b3b4cbb7d10eb10f8e0d, type: 3}
--- !u!1 &2113468721
GameObject:
  m_ObjectHideFlags: 0
  m_CorrespondingSourceObject: {fileID: 0}
  m_PrefabInstance: {fileID: 0}
  m_PrefabAsset: {fileID: 0}
  serializedVersion: 6
  m_Component:
  - component: {fileID: 2113468723}
  - component: {fileID: 2113468722}
  m_Layer: 0
  m_Name: Directional Light
  m_TagString: Untagged
  m_Icon: {fileID: 0}
  m_NavMeshLayer: 0
  m_StaticEditorFlags: 0
  m_IsActive: 1
--- !u!108 &2113468722
Light:
  m_ObjectHideFlags: 0
  m_CorrespondingSourceObject: {fileID: 0}
  m_PrefabInstance: {fileID: 0}
  m_PrefabAsset: {fileID: 0}
  m_GameObject: {fileID: 2113468721}
  m_Enabled: 1
  serializedVersion: 9
  m_Type: 1
  m_Color: {r: 1, g: 0.95686275, b: 0.8392157, a: 1}
  m_Intensity: 1
  m_Range: 10
  m_SpotAngle: 30
  m_InnerSpotAngle: 21.80208
  m_CookieSize: 10
  m_Shadows:
    m_Type: 2
    m_Resolution: -1
    m_CustomResolution: -1
    m_Strength: 1
    m_Bias: 0.05
    m_NormalBias: 0.4
    m_NearPlane: 0.2
    m_CullingMatrixOverride:
      e00: 1
      e01: 0
      e02: 0
      e03: 0
      e10: 0
      e11: 1
      e12: 0
      e13: 0
      e20: 0
      e21: 0
      e22: 1
      e23: 0
      e30: 0
      e31: 0
      e32: 0
      e33: 1
    m_UseCullingMatrixOverride: 0
  m_Cookie: {fileID: 0}
  m_DrawHalo: 0
  m_Flare: {fileID: 0}
  m_RenderMode: 0
  m_CullingMask:
    serializedVersion: 2
    m_Bits: 4294967295
  m_RenderingLayerMask: 1
  m_Lightmapping: 4
  m_LightShadowCasterMode: 0
  m_AreaSize: {x: 1, y: 1}
  m_BounceIntensity: 1
  m_ColorTemperature: 6570
  m_UseColorTemperature: 0
  m_BoundingSphereOverride: {x: 0, y: 0, z: 0, w: 0}
  m_UseBoundingSphereOverride: 0
  m_ShadowRadius: 0
  m_ShadowAngle: 0
--- !u!4 &2113468723
Transform:
  m_ObjectHideFlags: 0
  m_CorrespondingSourceObject: {fileID: 0}
  m_PrefabInstance: {fileID: 0}
  m_PrefabAsset: {fileID: 0}
  m_GameObject: {fileID: 2113468721}
  m_LocalRotation: {x: 0.40821794, y: -0.23456973, z: 0.109381676, w: 0.87542605}
  m_LocalPosition: {x: 23.2, y: 58.2, z: -40.1}
  m_LocalScale: {x: 1, y: 1, z: 1}
  m_Children: []
  m_Father: {fileID: 0}
  m_RootOrder: 14
  m_LocalEulerAnglesHint: {x: 0, y: 0, z: 0}
